nazwa,wyswietlacz,pamiec_ram,pamiec_wbudowana,aprat,cena
lumia650,5,1,16,8,999
lumia640,5,1,8,8,799
lumia930,5,2,32,20,1200
lumia550,4.7,1,8,5,600
lumia532,4,1,8,5,265
lumia535,5,1,8,5,320
lumia950,5.2,3,32,20,1320
lumia1020,4.5,2,32,41,1500
lumia1520,6,2,32,20.7,1500
lumia735,4.7,1,8,6.7,1000